{
  "gitlab_workhorse": {
    "secret_token": "dw085tUOcmJH7D/sCPJer+rK2fcGBdO2sNyeXUEXj2g="
  },
  "gitlab_shell": {
    "secret_token": "215b96ec4a7121f28b8d983f49ed772cf4936883bfdbef502b1968f9b4764771285ede1344684e55edf5c6ff52ebe760bf43f35aac5524439a1b25456347d563"
  },
  "gitlab_rails": {
    "secret_key_base": "91b3566da4cdfb5aca10e335d8219460a073e34a2d6916a55c7738689970f6c6ca6a22a1add91068a45ad71a9981f5454fd4a21f4fbec5bb768a694f8d272422",
    "db_key_base": "d11c4214f2b102f5faf8cbdddbac06e67b1a332e886998d8497e4154481d0142f4757f19fef9623c1d2857b9ddc95bc4911806d3bc6d3b0b927e4e4b6c1611e7",
    "otp_key_base": "c7760a95d81c01124d39316909e3858f349f4c1c0224db4f60ec54da188e1e8239a581a9bfd1ad644ae2091d4dbdc94fe96dbd05d8041955b7537e70003731ed",
    "openid_connect_signing_key": "-----BEGIN RSA PRIVATE KEY-----\nMIIJKAIBAAKCAgEAxiDJ5auRywQ6yiduEzqy1RjFdgGtxsD6bpkgulOhq+2/CYbN\nPjlj6iHt29azIbxq1DadelYkpeJq7W7Rlf/15J5IQy90FoFoz3uHbhpFRTFjUAX6\noGMvwFYCLOleQYeatTEFw9lSS2JdwaDq/cTAEvgyZF6AsGhYa+nVNTq1rAXz5JF9\ntfFlcDkPICvyl+nLXZeVbdT25Y8Q60BiGb+e0YLkrOFExY6lPq5GKeGaE1GvB8mc\nhwBfAnAeUbTAj/3r+qABws1ZVKm2w6ldC/KOj5NbZOLMK8Vbgxp/wcmTEmCkH5b3\npmFsW0I+ieh+t/yJwerDY6NrxLIVwqZ4CyXBBmREUl1JkO7ouBtux0zyLNhFT1Ww\nzEw8TxqRfycSOakzxczokpDsbauhxzf+5rT1Ue8oiOcsrtklxmZtTFIZc6vrbMJq\neF3b+JIbGWTMPAFYewuS2GYRWabCXeOgPvN0u9JUYZCb64K4+henXPu0WrxDYuRy\nWBX00SZ8PRydc/N++mPJVvWeFvmLxZlcLyr0o1QuZi+3rntLxC5ErAziBPH6Rro5\nO5VNELRlDxJfK1JqBJU2voBDcLJ8W+9bsr0D+6ljxzLF+wgcT/5YlZpkQywCQCw/\nwQ6ku3zTOr2UwI2yBbli7Cs9E2cSILzirtyigzpX468NKBIrztyBWfIWCL0CAwEA\nAQKCAgEAgZ+gF8f5GabJw8qqRKBpseuD/OG6TMei0MsUU3M12eMw0k3EaApqKRtL\noEHGbrLz/aVBwHEthu4sYOzY6FdPC+TWiEY6oCLIbL5363v6h/t46zkOMPLTofVj\ndPi1dw/+Er9g8zJymelgR7c9JwwbUg3aAjql3URXXTreB/ZCN6qpV4gsg+XMJPDf\nyX+XNvZ52+C5neLwKV5BhnhX9lqc0Jvfeo/jS5E44Vppgysbf7o4VlL8OoLupgyu\neWxVc5+ATTd0D3wEDtT+QuLCgneN97dD2yxaweRcK9khbqqvsx1RI23E1rD0kHw1\nqEpY5YyuoBU1AjI/5q9Qd0osTbbEon6Zyzmo5BpKEZ87blw9YCfY2EMp13YLxWaF\nA5Q1GArIHSkoSo07zmYj+acGkGKCoCNy/Z/6N+5UsGZ2n1f96spISMSRU3QLih4y\nJbWHujSn8oW2ZzcYxA/nHLICfVj+7xAJqGJAm8V282oNuuOq7eHZT5gjmv4eNt2K\nX7iS4r9TXGx7DBlz0lyu3oeAlNyz0ntPbimvypKf0MD1t/wXpO1xxrTZew21GHaN\nsM8XnFd2LWWk1H6233grgSPaVcnhrE8wc5H7XvbH8f5s8z3LOFLqcQVS3ckOiiRq\nBjOE0J2vQ9Fn4RfrAUxDILsmfuCrWInb76lsp3h1TextNxBfrO0CggEBAPn0yN6w\nNXQARvNSyECp+FJz+9O5H0nSRDBsmzj3AiEUgTw6x4tMIAmTZ+CbPIclOvbAU8HG\nd516QXUAtQrxxxXfZmU/BBSkVvYGYW998Jp+qaOErvYAmCaVBffPjSzLjiNz/GWA\n5VnPyP3rJxCQkRvVHk2RiHKxglFujRVSul8m9G2vp7x1cXudrfEBX+gLvujkxJ8+\n8mrNmMULDVu2VhRZ6CmPxRizhZ/wimEL4Gkru/zXSVgFZWoI59xj1Hnu3UIpfqiR\nT0i047yeSWWgoY5VbICcNd5rc7nyRuD/A5n2mCBB1+wF5jc1h8z8CKMIcC3G+Cnh\n90AB1pbqdvlhPZcCggEBAMrrMNjIpUmEt1bB0DRymAVZV04PCnemoRi2SPZ0guAD\nkJMnak03lOp7nHTB2p4jFrODDQMa84qe/qJeJjczN3FBgkcpY2et3xWP/lLCsTvE\nLfnmGATEvNbzyiGjhmQXUTCzxMaOJ4RVeYeJ/hXatF9vGeWqIcCqrrP+Ndjcc92p\naNpPfN1R6obNCb/91XH3NWWobEhFE2MwWNGLxO3ADrj/sEfO2Frptwyb4U81YiqB\nJJBb6Qlj5v/nHQbtwZcPzccLdSfDbW6Uupgm6o2UX6JmM42el+yOsCaiSzUzMW3L\njTbbAWq/ELlCg9jv027jSMVh1T9xSrDU5JampV6hnssCggEACo+WIRqO15zfYo5/\n2YOU817lJ/ftY4AX03fzQv/kviMQpsvQ/Ii13dG1lN7aOteO2zgbEdfh2+x7cYcb\nHyBCCiGLQQHdmUWsSu7QFRbcIJrzbe5AOjKiOxcWznadf2QGWGchJeTBS/8kfd3+\no4uIJgXmJt7cRgRL/kbOfTUmnLiXoT7HtoW7yr5JyCIHvFUqtspbqGLPeUXAi6rA\n4LwefPOjhIYHjNig77YJErqeu7LWWYN7HNX1h/piWYR6SMCX5qC8MkEZeXfzG1gQ\nv9N+n/XqBLEU8ZXWqOecqQr9SvcJTGubxOQm6vQ/DaEkeEb1/mkmuRZMDQ9G0s+L\nQVQjdwKCAQA6W6mQryPaIPEZYmQesVZHM4qISIsaHjH2iXYyaw+4nU3XBF7uFi4d\nwa8dZSMal7zPo8D6Q6YHF/Ljf3A+L9yiFdUB4kVUbAzchqz94EBYj/MpC6Ocu3gT\n2ckoI39jCdGv0AOnlvqGdI6fDHCmmF+Hksw/4M4UOwJDgbi6xawM88vT/UhL3mM0\noYNMVBQu0ono0qdRoYwR2rWwjiH0vmd9jQuFm1ddzhl25t3FifTRhJKfcc9zg+fL\ncQxIEdi7OTBVLlZjOTEfvGZtm8OZNDLM4dexwwquXdsLQWGfyzlL+l6CiDnAGXMV\n1KtWmKKWIYesPJa3yD1S3edf7E1jCdhBAoIBAHOi5ZU+W5wU5kXEQ5wpCOfG959x\nmSrcjkiCA/zRP7z0AY89Uwi52MgPMONfAH/goHkPYsRoz1cCNpSwDg7F4n6KfS9n\nqWLuqtIl99/8RO4ihoFKk3me3nsEhZr7cXrqaVE52paNIBxZuWrSUHqm5DLH6Srn\nXvs2aYngWJ6WG/1vyh+D5P31d1TtttLr1M1ZnXGj5qUt3mhOyWcgyPmIMChAJ6Q3\ny5yE1xL/zAp3m4TL7YRFYLdHWu66JyVetXe/390ZEfWcPgZZI050aTKf/f3qsyZS\n6TvIplk3PNCiu/c2iiPvPccXTWIqOBP9U/W66CV1uZBDGHTVHWmiUQ9nsLY=\n-----END RSA PRIVATE KEY-----\n",
    "ci_jwt_signing_key": "-----BEGIN RSA PRIVATE KEY-----\nMIIJKAIBAAKCAgEAuzZ5UalubBh3as3a0qc3TkGyYcQAe54tOBRcFk02NyH0T83D\ntVYP+kdCLAxoITGY/mmtbOsL0kX28BOjrdwX5p+/Sghmbi6JzOqJv7rUCW3xh8Q2\nLgI7dku6UHVlSJvPvuz/VvaAGWjoik5+GVGGknjORjLWJF1M+yViUwwaYwGT8uE7\nkCs8oufkr/9r+ZppKh8m6NnpFqrPlv318S9ivwCSMN7HNe1JXrSVX8tXWEGiDVCe\nqzQMyQq+lUXJVcXrMGX9hY1Lm5nFdRriqkAWNbEOzDpnMfTAdKm0/7s7wfoxeBPN\ntQDjFT1iXZ6SYezpvHUUUiSMt/dZYcl9/hkqRKcjeBfRL7qM0SagUIYbFL9/3cfc\nQY+vMu7NB0PXAHVf90hTiOKIgXwZfff9DK07Mo7fhhOW6IliZ4c+9vqjimbuOaU+\n551hDccQUR0GR/6sMNxh2POM+NEZV9Hhj/pKRcUvmyg7t5t+pbUBmgMOU+0sH1F/\n8LyCiwTB/I2P2sJUTYvk3fa65557n5EftlzO8BunnORBtjRlEmNOnEa5MqExdauL\nXPwZ+3l8zyxu6UlMrLDssaXR8Yl7hLYcuRLzPAdF6kV4lS0KxXfoJfFNk0EKkpId\nWlm8ZuPWAgBU9DnwI8ZQobXWQynUXkTxT5eTrtdz/5fr3lTm5ryMg5XW6ZcCAwEA\nAQKCAgAPdQDxSB7w19hMPjDaAapkULJMtiUgD8BGCBBOWxOl26zTRfbpqvBoxqdl\nAaU7UGAEaW9DNejk9Jfd3JFAEpL6nKfrkeP7JuaDv72d0ewd1zEA96dNhyunqbr5\nV6gEJbEyX1j5siKDdpD0kmSA7KVCxKyrSRk7KWTou35xwucO05uGiygi0B8SiDju\nexVMJ36VVrscsJk5IONA4TkEL9hkUsS/OjWSc0QCiMBoh15v0AN0O/rNwd9oXfW8\nV2W3Kj8v4Mvc0fyzHTAbahva2K28wyCopg3NJxsYxsZF8wyNCH47Hs92KVuWbloH\nxsbpROlLgRMrcQ8ZRVfg5gT8DNHbcwCDtMkV4YOWEn+rPmitSa2cit15dGeId9+A\n9MwOwVnKEOnrpKbMFYuD70RmntzQC29g/QpWchah43C6W796GetSZI76A3Eo3nxf\ncSEy3U7+5byUjVSHZoPPvxw2+iOhdj1YEXFyhuwqfUx5pa2EpyjmFLF+PAmqGkIa\nPSD7cARdyBbzLQpocFeafqvb6NdI5H7Ze/RqG+3mgLVWMd8dUP74Xj943/0VW+7g\nby/sWBGLDwjKM44cr+djLH8Iy8yMAqBycEsT1o2MBWRamApPAkuPcnQ5svzMnNLq\n7efLCL+FSGpdHrnkk3RNFYO97p767l0QD6FBXgFjeD3Bj80vaQKCAQEA6qLZNb/8\n6UmR4jjVlOReF9xkdUeZKdxOlmGwC5F3RNHeZKJo8neZ1nkRBDFjSImRXNvzpZYX\nvD1t4kHa8/DRJhhx7p92VVbVNk9vEoga9kg/eXmRC9EACrECMbeNc1KtDTUSQeBl\nuVS4DSdryNwT/cd1ntNzRfRRMzwtpAf5t/UIdCXCoFjUtN/OoJcKoGiBXcFKLgoj\nJ+0EMdJEtaA2dtAygZjSyUmZO5Chvc5oyuf9z3gO7BgyZbjhLztUCAeh9glm9zMQ\nyYpbV5LLRUU3iv+scryvoIb62nnTHeGqS8fAww1uEG1cgXZA7yg2sfPLQm/KLFgW\njhvnVuAeYjhk/QKCAQEAzEI7Lz3IAhDJLMLNfw5TAEHEJWXaIJu7u7n6zqAcQqZA\n4ZxgTQ8GYgnDuyX72BCidgb1VlUNt8GTZuMxSyo9CwW9HxFvXoEla9bi0k3rPxas\nm9jkIWcPq+dB8q0m5IUHMjE2NdCa9iTAf7vzje3ShRtFp4dOmZ4pvIHDZ5qum2PG\nIrxBbFroP/MEozX9sV4SNjlOvzYCl4QBM4cWFBZTo29wPa8FbAPXelPdqad6lIpK\nFLNb4nIPGDZ/9FksIqd7o1vITCpauaME4jJABGoNnoyjUZcRPIVBMMra9pIXVEaq\nE7I3JJTKlfguYDPDMxOuJtRPUFvDpexgcxlcqMX3IwKCAQBTWrrzf1rnvX0X8rzd\ngitzKpZ9m4vr9RnuDpIt6eWHC0+ITLIfwSFjseq7pJfywvxjEriB0Mpp0yDgSijw\nlFKYyAJhlUDCnHBuNNXurW92or/59ZfzrLHpGmz/IIgdufdEQ+BSitdYeaJQ+fou\nhxCLDXrZi6Dd7yeRngVQyoyKL4BrUqbLtAMMpp2PK1lZFwcuOWaS6IMIwgjFcj96\njooKt3fZ1mK7o2vOX1k2Rsevna7rL2mNsiLlREKrNtZpa9y7vSdZFkkWcBJ3D+0q\nlKZguOeYczOpQYqIZtL7QJnxBeuS34iESXWdgFcdHxofKc7BsVkPW9PXdE5A7Kme\nlw45AoIBACh4YvOcQRmvq7xzqHWpJ+bgIPXr9UkKsiqi0b/I13CZMjfBXQ9Hj9My\n7hYRk5Ge0iGihU+isIIdF5CGKUkkSE37yBn0wWUvH3P7cpuKlra8Tlzen2zC18cO\nnfFwP0l91gwq1fvZpipo478rRTl0yoZW/fkQhRFI1iokZ8wKSNg+744IUMogRO4O\nv3d7BhXzdpZJyoF2ORM+M2K7PDOkrNOwC8Qc/m0FYdc58Kxho5b0w3LQir8WLEl2\n2ulWFbmUB5o5YDk/FxS66QfMPwTg4mvsn5tV3DNqj50UREggcADhs2cNo4Fa/byz\nHLUw7Fcdah8FZ+WbGOuyJvYHK2XBO5MCggEBAMpPBbWr51Ltdy73zcVZ5BOr6bov\n6dCrvDFLggSdEwv86vQcdKgJTGbJSRiVgsVSjlVqObnx8ptfKeksesxHVeoTvW/V\nNDJxBW39j+4UvTHwRZsTh8oR2ctXTz8EaTeA5Lw4Ib9vr8vZKV0cEsmEQuYiuvtU\n7hSmz158O1sjUc0R4T8tTmaVAsDI3FtIoxsls+rJH6LXIs8R6C1Dm7FnGzp53G2N\nlS1czgMZingmvueK0A0pgXU+0DOiPM8EoKzwlioabDMIGlJSloFTqGH8jA5mJ05E\nzUeicI4NkyzfcZZ/FuyEI18BRh8xuX5tZvmMaCRoljRvvA5ry5DTc+H2iXQ=\n-----END RSA PRIVATE KEY-----\n"
  },
  "gitlab_pages": {
    "gitlab_secret": null,
    "gitlab_id": null,
    "auth_secret": "c7b62428d10dc1273629176d1b228983ee9bd843f189ed9c4c0707a4391df5d0148c8b40f54ed596b6baed4224b79946ee05f67adbd5fa6d2e4d05a13ce4b8fb",
    "api_secret_key": "D/Ght2QgJuuR01ieMWc4kP0tnl79QlRSwKvgN4iqgTQ="
  },
  "gitlab_kas": {
    "api_secret_key": "YThjNDQwNTgxYTIyZDExNjg4NDNjOWY4ZDY1NzgzZGQ="
  },
  "grafana": {
    "secret_key": "60d4992609ad2472c212bbb5484a7cc0",
    "gitlab_secret": null,
    "gitlab_application_id": null,
    "admin_password": "861579e4d622751affcd9fb2111fe673",
    "metrics_basic_auth_password": null
  },
  "registry": {
    "http_secret": "588b92beecbc1070de825d6c7d0e7a027a0c4a2fd342ac8cf39d2dd16aa63e240bea12fe48996eb50d1ec53b0abe2cf50cce4368416c8d5f1fbf8113243d7891",
    "internal_certificate": "-----BEGIN CERTIFICATE-----\nMIIFBTCCAu2gAwIBAgIBADANBgkqhkiG9w0BAQsFADBGMQwwCgYDVQQGEwNVU0Ex\nDzANBgNVBAoMBkdpdExhYjESMBAGA1UECwwJQ29udGFpbmVyMREwDwYDVQQDDAhS\nZWdpc3RyeTAeFw0yMDExMDMxMTA0MzNaFw0zMDExMDExMTA0MzNaMEYxDDAKBgNV\nBAYTA1VTQTEPMA0GA1UECgwGR2l0TGFiMRIwEAYDVQQLDAlDb250YWluZXIxETAP\nBgNVBAMMCFJlZ2lzdHJ5MIICIjANBgkqhkiG9w0BAQEFAAOCAg8AMIICCgKCAgEA\ntCMjI9d8265vrs746uOd2f8a7BS7C1AukwxuDYtIpjjT6CVeGPlSAJJFJVuclMWi\nYZjolEd1sWdiDbrlP7wYB9NplM+rBgVQu6KLgOUN9WkjwmyG72iGjo0UkYjTJUaq\nzJ3Z6RX9DN2dfJyoCVnJc0nbXfR0D7RBnSAYAEZWdgC7DD1OFUctM4ykfRUrfv1X\nx6G757Sk9araNCRIRUxGrITvDJdiq+8YF0gQcA3HvwSU7HOWAj/AkdSaZ5F3XwJc\nX1NyWI0guVtMyt4VlTKbIbSl/7e5SdMH413mlI+dFgA9sw19/jWr9sckU4znwlSk\nl7p0im0h+4l/oTDMZR8I64GdNTSnM/VC3+7pUWBhwOtUzGiiHv6H75G4uY3MHMI9\nSqsD++mWy+4FfBrUDBnfsqR4Ro9oSFoJsjZApFPBHgzVNKUWV1SPnIGcsOXf/c8W\nyiExRO+SS04FD3L5kOdwPdq0itSlJGwknK5IcW/vsGEK9i58jGpyBhABui9N71GD\nPqGK/9eb7KUh1Yf1720/SLu+BI2FtXalknPzJIRPWHHZeYFVJX6EdZyu4pNG+N5/\n1W95yzV0x8dGnMcgvjKjbN3yKWtIIhbMga9fLqgVKkuAk3KwS8lp4TyMC5JBY8+d\nuTnKw3o7HsER8j1oxdSET56PHwxdapyVzKPCJ6IYx10CAwEAATANBgkqhkiG9w0B\nAQsFAAOCAgEAduT3zJxKDV+gq8aYYB+JgPtq+zLOJZ3xmeWZzfbqvZGcqL9GqO2q\nQY6TNwmm+N90UpNybQuQ+SdVJDg3Lz4wDPagr8c+9gTaAXZ1cu5/GTloNidOD3al\nFY00HTDxTt6xPspQRYcOyf8OhkjUnRDN9394qJoO5Lu2nuKvvVTQjI3IqzgY1ebz\naba9eRCX7Xf0Lf09rNVbr8M1qxfz+92RQQ3Jxmwu4b6s1zCZ+vG3P49S5DgkhR4v\nBqRkYCuKwlAjWr5WAtTnluzj6L0SmZ5Nf/hn4P66YkRl1R3zg6fyVmDXUBjDJjAC\niZNtrwblZnbqgEPiEDqPCwk/rA0ZLV+N+jM5496iOR/7FpxGs8NNaHLCeSG+m6sO\ntgb/X/8LSIklq6ax1dAlZbiGpjoz39eRYvWW1TMVb4a9eUQw8Foj6ds1emGTpNLI\nvH9jSaf5OmLxYCjG0iYwljEUFYChiAMwdgs3o2t9w516/rH+NCqsUGe0M5ryQ5ck\nD3TP4TnAcemnRs9v7J0e+Ex2UMty0Ts8HCeXqK8Cpctxc4bh3/3yMxWhBcD+esrx\njQK8IyLjQ2YjwfgaMFU0/eBDIii11oy1RbdmJ07DmWavQ2LpfnRYd0ke9MVr4U3k\nErEM4Mm3jqbda/8fqhNm9Um5VxTTvbKIpUXzCOSkItYM1ote/XC9VWM=\n-----END CERTIFICATE-----\n",
    "internal_key": "-----BEGIN RSA PRIVATE KEY-----\nMIIJKAIBAAKCAgEAtCMjI9d8265vrs746uOd2f8a7BS7C1AukwxuDYtIpjjT6CVe\nGPlSAJJFJVuclMWiYZjolEd1sWdiDbrlP7wYB9NplM+rBgVQu6KLgOUN9WkjwmyG\n72iGjo0UkYjTJUaqzJ3Z6RX9DN2dfJyoCVnJc0nbXfR0D7RBnSAYAEZWdgC7DD1O\nFUctM4ykfRUrfv1Xx6G757Sk9araNCRIRUxGrITvDJdiq+8YF0gQcA3HvwSU7HOW\nAj/AkdSaZ5F3XwJcX1NyWI0guVtMyt4VlTKbIbSl/7e5SdMH413mlI+dFgA9sw19\n/jWr9sckU4znwlSkl7p0im0h+4l/oTDMZR8I64GdNTSnM/VC3+7pUWBhwOtUzGii\nHv6H75G4uY3MHMI9SqsD++mWy+4FfBrUDBnfsqR4Ro9oSFoJsjZApFPBHgzVNKUW\nV1SPnIGcsOXf/c8WyiExRO+SS04FD3L5kOdwPdq0itSlJGwknK5IcW/vsGEK9i58\njGpyBhABui9N71GDPqGK/9eb7KUh1Yf1720/SLu+BI2FtXalknPzJIRPWHHZeYFV\nJX6EdZyu4pNG+N5/1W95yzV0x8dGnMcgvjKjbN3yKWtIIhbMga9fLqgVKkuAk3Kw\nS8lp4TyMC5JBY8+duTnKw3o7HsER8j1oxdSET56PHwxdapyVzKPCJ6IYx10CAwEA\nAQKCAgEAkxfaGutcRlqTUfAqLEu/WwJH7p0i+yL3VRYiS6b/pNPknbzdsJDuGA9Y\nrR+4pXcYmI9u453SihF8bO+/QSMLkGBe56gH5Du05/Lb7V2c31eCXsGWEaqNrZug\nPxK2L8sbr0f6Z62P29CfR+D4CeKqcBzQJ1F08Fnl9jL9xkOpWGRSWLU6rH9Zdq2S\np50Azop7AkWcFaFZzk08LrWt2gBl+Xv3Y5W+ed0cE+7BlW57PAy2urnLtXxvd+Ve\nS9Hp4sgfu6t9RLfBD/pwo3tjrlgLeyNzJXPVtmW/HDdSEN+QiyWZPDt5NXqIOFP2\n4s69dN7/I/KaNWrWA/sMIAij7rK/6YeJyimmiNGNgtCboEWENS4u15xJnHgtfJnI\nHS+CXcVAedPr1fvlnZ0Xinc+PuN8F8e0HVStNdm+JWUc/PS9MwnApu5RnBieMgOF\nfzjXuUh/Dn7/pZmjsJ8EaNNCo62+yRC7HhZAz8RhD5Fo7mydbv1XvS7qfyU51fgb\nHZeM0Smjs1Ln44XyuMdb637ddEdlViU+NQt/G8i5N+6ATdaPCQNufAPOD/pcEyYx\nvx+raaedStjmCcI4XBKG82i0/7CItey0T4zzzAlZGqNMLUoJM+nGP5t3Jkv6a2Nf\n+9hqt4gsc/NmNqUiPMeNnNYoHZlkOcrI/RboNsFCKgyJlnE2HZUCggEBAOWGr88m\nXuRYenVoKSsx2M4h25mie7DD+w5h2skdk4PA/8RXAuRNCOnDhQKzzYsLpbITL5yS\nzoOsxdbdbEFQo9/ikSGGkj7LTvYNq8gQ9E0F4gBDivDIrVOxdCGLiNLBoFx3rkok\n9d4gQRG37NCNvNveZlW8F0W0uhTO9THlZYW+ud0jIb5CCwtxC3APX/RABCNoBJqY\nH7tt88DD0jywrtJVkxOQP5+x3NsKo7Tu5is/UTwsJOck09dQjDxpeBpxwHLflyFX\nlXCx/LmKNi+yf2bkbyS1XwY27ZuRZ2wMel761KX9ZpeNcDSbQCEc+NQ3Yh8aY+cI\nfOYetGme9E3Pml8CggEBAMjqH/wP8HsnxQJqtmXflviR7oMElxeMEXLKAStyjoIL\na7EEublUX9edirOH4fmyRr6bY6p1aDM2+AAkZPCQsRj3vpSLw5AOWgW8okOq0HdT\nMwqLg6L7agrkdUPp4wPJ4hutnUKo1WyA0hA94CRO4WkBDm4SaC5V7L4jgZHm9Wh0\nK/M1X55e1DNoJkk03nd5FRmDcFfwp5lpKpnKtEAuhS25DLsEGydxnnZLP30JPt9w\necLuChLZrKMCqRExiKqyqL4MsOh3F1eVSxIb+iOFJ02N2KWavqu+8e+2WRTYC8ma\njeW2ejU6BFwbq2ZstEuyg3xytUgQlduVFkWhNBJZb8MCggEAMAlkOiJ5saii2HeY\nRiYEjf+gCiNrZ69cl8H7HCRIf0ahQOJFBKrqtqHo8IvY9MTXRNGnIUnIVt6N+U4W\nHgVWhsDQRwf3C5VZTT3HOfPybTxR9GQua/5T6DQ3bd3aIOHNQgz6OSJLItX1SFQK\nCAvh/tIo8MCQzlHor/owbuTnvnoQRCvaIAuKbDaYgjd1iZTsSMy4SfKUkZGNdkaF\ndZY0wGiQg4OpDS8YXe94G6H0IhD6W3GRt56Jh4KgFvSr4jz0XhZVdvDxochecCZw\n+MKOz2X3rOMYpCBS0kA4OPDTm5U7dBH4qrc7SIdFgKijmyaMLp5DUlMAcNj0QTa3\nQqG0WQKCAQBDeOTe6JdxNIzj3+R7V9hCh/eahlsbbE2byB0WczVKlP1IiHa6t4ws\nQ9sFqbeI/IbnkhWpdB5XPLmSiqZfZ6gh42lcR4eYhElVLeEsalvyBr3YZ7wAawBU\nwh5jfVNgvVayxt5OOZbbBnQFQlJYvyjR86nd606TaQXFYPUtg2uc9Y6g8aa3787B\nqNNauGeRpdchJ1P+JHKUgY3t8fYQq87L6R5OW/WmjHCT93dNzWIQ9Zvei8RUSkfA\nwq72eDUWZkNm96odl4j+P8PjRAQAE8J8OAuuqcYotUpYn1tRNbDXtpC6uUpXP7Gh\nISWxkwYFeeDQVVFt7yv0fx/oqFdtZh2zAoIBADQKgn+7xI6KE/assHwRuG2RQYKV\nbyVNW6IpoVV0bUxV2usZVetDaw+bGNmPhAMl0EABShFoCsq0sD9vNjF5x77Vqbdv\nJzd02Qkzkx/LibALYgHyKNQT6t/i6PnNVRf0FoC2Iw5Mr0ECLvq+dIqO7rdEGwur\nYk2qxLR7zinN7SbMrCoaAddpGNLE+XWu0bzMvtaMV2C/4V1/uZcOudcP+kpRgx4r\nowtSJDGonLAGoWNqzfdRDWTuinWU1ZBaCDVgG5xiT10uwSUprNf419bsl55s0ner\npbaasCmpbEAGFN+1pRKJMVPw2VEy6joHW7w/jd1LB174IQfsLmgew0lXkMQ=\n-----END RSA PRIVATE KEY-----\n"
  },
  "letsencrypt": {
    "auto_enabled": null
  },
  "mattermost": {
    "email_invite_salt": "37d66ccd3b22a424a91afce72208ff38",
    "file_public_link_salt": "302ab6ed55658becc6554c1175f34593",
    "sql_at_rest_encrypt_key": "32fe59e6d7af0d591b4f314fe9c60859"
  },
  "postgresql": {
    "internal_certificate": "-----BEGIN CERTIFICATE-----\nMIIFBzCCAu+gAwIBAgIBADANBgkqhkiG9w0BAQsFADBHMQwwCgYDVQQGEwNVU0Ex\nDzANBgNVBAoMBkdpdExhYjERMA8GA1UECwwIRGF0YWJhc2UxEzARBgNVBAMMClBv\nc3RncmVTUUwwHhcNMjAxMTAzMTEwNDMzWhcNMzAxMTAxMTEwNDMzWjBHMQwwCgYD\nVQQGEwNVU0ExDzANBgNVBAoMBkdpdExhYjERMA8GA1UECwwIRGF0YWJhc2UxEzAR\nBgNVBAMMClBvc3RncmVTUUwwggIiMA0GCSqGSIb3DQEBAQUAA4ICDwAwggIKAoIC\nAQDHjDi1tCOVqG0K86PcVo3fItZuQYlTjH+580OACAvPeguH7IwlTtAfu1HVXZSu\nb5MwHK7lAl/5+sXK0xCGqTxRKU85R1x5b72oAPWBe0spD5MALTXfPJIhexI/CdP5\nxtCydGyPVRLiFHiNP201gf8GqMKPm/+wBOMEAkq+/weh5tiIwoSvYppe+8SwV/Vz\n8+RhWb8amW01SR8GNQrfPYvUEKeQAWinCdk9rk60V7EAv4zPkyLpfW0PP9zxpv3G\ndEpSzpKoMScdxbYm/ine5+yFKzsRFpA2NzgocXivwKZMeIT/c1upJu/AD1u9cjzd\nuvel4yjVxqAJCEuRJHOR++vsKx8onCEw7ZsAHE7FtluM46PgmBTB2ONXhJOBVaJG\nE/ng9j/LYCR4nXdlP2qwcZHxhv4iVRBuJ+PoTE+IOee6OYvhHFk0R2ceXDsZ11aO\nCQyp/9tP22RrrO4TrLyuB39LS6/GeoTFJ/9yMCis4sNzJU4dYOpfhalrELf2j9ya\nubHzvgTQuo8S9yRUIn8pmOmSMgpEjurrerMwYAp2grIakoNn8xsxYSMVu0W1MXDo\npSM9f7c4TBdVVajpUVt/e0JZ1SDESkmYnavssvZjh8Y6tW3uAsM+9fJJJyEe/1d1\n6PSvp+GPRgDWuPqofQ7vNseYq+AuZq8hYnF9l//ayqNSoQIDAQABMA0GCSqGSIb3\nDQEBCwUAA4ICAQAV8BPFlLuT8cpUN5udHvSqsKPWP8k9wfidma7VA1in7yw0Y+qn\nokvCHnplCp37KFIg32lgKKYZ0txd3O0DAtzoWmaJ12F9oPTKj17KJDJ89XJZ4MN5\nFX/s9zKmgIj5Ags5mEgnZF7BAqSCuKTOFgQ1KkkVk2VCf1EzyboYCbWf1+2nbM0r\nPPOe+ioncjCr1l9ovi8oLMbaPZSSfNzrXcDwZXKm3Xp/tmxrkDCYJEkmyDs2qGw3\n88r1QhJwNoxaYYdgQ0QwvZuol7y5hzd6gP1P/2sPx5/0QJY7IwzOQI0uxlKZsS3O\nb517B6RIt1excTxQidAAzfxRpzVZgkLQok4rA6SXgdQsDOcKRSvFp/yuf9jvTmZg\n0NLuVvl03iYQFBqC8ZZNngJodRlDMohkajXYjYpOSAYlTiN1HRVNl5IoSUjWLv1m\n5+qhYwHk1KTUNh7wdBKH47mQAdCCIWBaHl2FN8AyvEgck5cg4l+Xdbnq/L442YvV\n7Fft6bpMmDF4ZwknYzaSIXS6yTskGgFt628da296mKvz0Qc/B3iJafzgBjVIMzS8\nZqOs0EljTKIUUu4rsRWIsYnyTT7dX0X+juekp6JBPKvSOP6HqSCgpNkZbjS+Bued\nScND1pFL0v4bpV29GFkIt5tZe7Y3b/T7EhEdQjXmB+3R4nEBWuCSZLJmZg==\n-----END CERTIFICATE-----\n",
    "internal_key": "-----BEGIN RSA PRIVATE KEY-----\nMIIJKAIBAAKCAgEAx4w4tbQjlahtCvOj3FaN3yLWbkGJU4x/ufNDgAgLz3oLh+yM\nJU7QH7tR1V2Urm+TMByu5QJf+frFytMQhqk8USlPOUdceW+9qAD1gXtLKQ+TAC01\n3zySIXsSPwnT+cbQsnRsj1US4hR4jT9tNYH/BqjCj5v/sATjBAJKvv8HoebYiMKE\nr2KaXvvEsFf1c/PkYVm/GpltNUkfBjUK3z2L1BCnkAFopwnZPa5OtFexAL+Mz5Mi\n6X1tDz/c8ab9xnRKUs6SqDEnHcW2Jv4p3ufshSs7ERaQNjc4KHF4r8CmTHiE/3Nb\nqSbvwA9bvXI83br3peMo1cagCQhLkSRzkfvr7CsfKJwhMO2bABxOxbZbjOOj4JgU\nwdjjV4STgVWiRhP54PY/y2AkeJ13ZT9qsHGR8Yb+IlUQbifj6ExPiDnnujmL4RxZ\nNEdnHlw7GddWjgkMqf/bT9tka6zuE6y8rgd/S0uvxnqExSf/cjAorOLDcyVOHWDq\nX4WpaxC39o/cmrmx874E0LqPEvckVCJ/KZjpkjIKRI7q63qzMGAKdoKyGpKDZ/Mb\nMWEjFbtFtTFw6KUjPX+3OEwXVVWo6VFbf3tCWdUgxEpJmJ2r7LL2Y4fGOrVt7gLD\nPvXySSchHv9Xdej0r6fhj0YA1rj6qH0O7zbHmKvgLmavIWJxfZf/2sqjUqECAwEA\nAQKCAgA5KcwdEUuYVbVXC9CHECx4HWy8DP4f9wGn7S4LAUMQ3m9rMrI7BcbNMEYT\nD0nGZqQNhkn7xKBl5ha/MZNsYBKtVV4ilHTDPOVhuVSbEQzI6HM9+7WRC7L48F6b\nvF8DEJc8Z+mpbb+JEEAwhljsmR7Lc5C4vwGSFPRLc7Sh3kD7ejvRgZes/lwmlY0U\nzz27R8TGtoTuQ8FrIFVI2+0PYnwp9dNqh1zJbSLUbpiRRQWppzXZSNcZeBrD4ZGT\nkDjmnu2jpxWQJPSFrNuvc+PevSWeSHIVRRdu0Ia/3zGpd1CsW2IOI6fAXy0TIdMw\nBAe3pRXIabiK9OlnbP7oxz5sNXSxo0BQ6KDHRI7qKxp8mQDhibaTanJ6Mc0jdDwN\nmw2lXcURaV+KDIJszNwYzv95slFp6qPYGyYTuitSMZcGiID9meje0HsgVA42xoDz\nxqP5TLDXm/EhXW5FUNfCziQlgNnPia53v2YyjERpsSqPZYt6F6fP+UArpW4pfS44\nVf+SJ9IIaKGwZhu3/gxRMScEEpWHAOvSCDa6YwKDwO0eap3W2MZcwYV1K7S8AWTv\n9iVEmfFlvgmVndsDV5SwZbpjXsGLMGpRVLAG8yV9CG0p/Mh309o2mAGzOT9VSIRh\ntMrd3BQH8NgwtE/zkS5+9/lbNQ/PR65fvcn6mNGwuwZmdMXkgQKCAQEA7sPaznjY\nQPlciLcH3/g3SZZGs4Urv3FdG7/AE+sTMqTaDW74kSqaBOlbo2bHshTtIZH5Ldf4\nokaiUZ9EMIVREw/tagyYFVsviO//wTZgPXE+q3F3bWh9qUcrihTmwP42O/OBqUtt\n/cBEL94tUBgNHECsM4ZbmlAFTOePixoQNf1zaCXhFtIRgNLRVxEKkTmTwN/wXYP1\nXIOhR0Co9RiCatnGWQ4zQ2R+/VtPcok9PUyMTP5mjcnlXGrNA26iI0SSSjwNszL9\ntXVMIZh2BEj/NzLWFlUGlE8DRYEiXicFL+VzoMMMFzSB14B3vpKGAuF46TNDgBtG\nLWQqKtphTI5SWQKCAQEA1fOrRy9Q1EE5MGx3IPTEbRSYNx0sLA28wa9uXNx5ONde\nsPM/kU7ij2EZI7A63bez6p78MiByrqvb2jfw6zN5gEid2pSYt0MCslpQ048KFmlf\nGe7HBcifExmyywunBs6HXUTag4cJ19970C4gxl1oAsEIHKvPQ1Scx++imrqFZUtk\nkFAZjx6HNMC8Sm6RcMVhbrMca/i4g7vHqoRE1+l7DC74Ivq2DF+o5zE0JqFFXY6k\n/PODSkejszVUUJ1MRQZl6QPVcrdufh7KDKHwGuxNTBPX4u+boz78y4oVpiwRZSxO\nULJU3lZo/eu/emJLt1y5ap6ikuJkyEnSHwZPXnEpiQKCAQBpt/q4FTXbfw4D0tb/\nyk3gnVNsxXhbafyJ/tszdpCnieqqrAoPbMeJiTH0Jdwh87YTeSjVrZz/bTsN3PE6\ncq01PYYnwK/ONPPVND8P892lFvFiw/jXTr7lJwgWOa76oRSucuFkbmujQXBvqXZy\n0lNrwQ7+OW1x5CCUrqsWMlIfNbvVz3/ctOLfIXljjb4aE15itkUdgwIvFnFgtTaa\nX2HPoeF7KRh1rJe14qpI0o91BuHQbYxHF7AgvYFNFb1g1EnZ6MFAKUHBCNDOx0zq\nFNA8RpwYg0lIfbu7GLR479oSHQyXkAVYeP1MyCs9DG+d8uuwhexLWsg17PXmx47x\ncMrxAoIBAQC+NVtYdeBOU44cVtGyIulecKjCltTmdXASYXykYf4DYrV0a01gSdlx\nzskiyVIMO31gYOelSOOsFm3mm0U8VQ731ZdA9Eqw4opLNbAV5Vz6f8NksruNkMab\nnIUvrrRXgNUnPkdmF2/Q04anldrdf70wdZxYoQYqvdaEia7uEFT3sQc+pXeTnXhm\nldLP+Wyj7Vapq+LgusaPlynzlpP9wDz8n+VKc8nVRlZK85uBnG6mtmJH39Yg+3+1\nmvvSj4V2+DEx746b5if9SDIo+O8VgG9X62xK/OpJP35PFfwZN6RfZfxaEbER2ZCN\n7kDU9P6LjYvqFg5Ct7MRvU9o9ZsqQ0DBAoIBABnp4jO9PGpOBYlH8XeKSjjGZoy1\nKUjljYmDDAg1RT7qXQ5YcByvO7E/VAfU47feWxmZWvQZfZZZ6qjXuggwl/T30DrB\nOJkptQGZBOykXU0cBYrQ8Gy6CfeaNuev4CZ2N9AizKG22C335WdTUCc6opNpzsGx\na9gIu8dFElFT2CqGDzkTBM7pTfwY06VrFt5eLqTl1He389r5/M70HMY9DukvRYNF\n2CvMie439bHyiT4FIMkuTDYR8Ss5EXKDCtPiIIOF+T9H8xqCP84fu2V+9/RP86hd\nIxgCz6D4A2Cku0fPO7kal/Rb2nDYnvzlSFrCWe6ljTIwy/uYANpWqKpSwgU=\n-----END RSA PRIVATE KEY-----\n"
  }
}
